%YAML 1.1
%TAG !u! tag:unity3d.com,2011:
--- !u!21 &2100000
Material:
  serializedVersion: 6
  m_ObjectHideFlags: 0
  m_CorrespondingSourceObject: {fileID: 0}
  m_PrefabInstance: {fileID: 0}
  m_PrefabAsset: {fileID: 0}
  m_Name: UI_Gradient
  m_Shader: {fileID: 4800000, guid: 4ab32cb7f49d30a49a40f04de4bc7d9e, type: 3}
  m_ShaderKeywords: 
  m_LightmapFlags: 4
  m_EnableInstancingVariants: 0
  m_DoubleSidedGI: 0
  m_CustomRenderQueue: -1
  stringTagMap: {}
  disabledShaderPasses: []
  m_SavedProperties:
    serializedVersion: 3
    m_TexEnvs:
    - _MainTex:
        m_Texture: {fileID: 0}
        m_Scale: {x: 1, y: 1}
        m_Offset: {x: 0, y: 0}
    m_Floats:
    - _ColorMask: 15
    - _Stencil: 0
    - _StencilComp: 0
    - _StencilOp: 0
    - _StencilReadMask: 255
    - _StencilWriteMask: 255
    - _UseUIAlphaClip: 0
    m_Colors:
    - _BottomLeftColor: {r: 0.14901961, g: 0.14901961, b: 0.14901961, a: 1}
    - _BottomRightColor: {r: 0.14901961, g: 0.14901961, b: 0.14901961, a: 1}
    - _TopLeftColor: {r: 0.11764706, g: 0.11764706, b: 0.13725491, a: 1}
    - _TopRightColor: {r: 0.11764706, g: 0.11764706, b: 0.13725491, a: 1}
